%YAML 1.1
%TAG !u! tag:unity3d.com,2011:
--- !u!1045 &1
EditorBuildSettings:
  m_ObjectHideFlags: 0
  serializedVersion: 2
  m_Scenes:
  - enabled: 1
    path: Assets/_Game/Scenes/First Level.unity
    guid: 9fc0d4010bbf28b4594072e72b8655ab
  - enabled: 1
    path: Assets/_Game/Scenes/Second Level.unity
    guid: 69c6b7a22df8a044c971edbf4728d350
  - enabled: 1
    path: Assets/_Game/Scenes/Third Level.unity
    guid: 5b0cec3ec79c17b4183a745b34a7f164
  m_configObjects: {}
